Tarea 8
…
Se observa informacin relevante a las fechas (ao y mes), lugar (provincia) y cantidad total de casos entrantes de violencia domstica (total_entrados). Tambin podemos visualizarlo en una tabla sumarizada.

violencia_domestica %>% group_by(anno, mes) %>%
    summarise(sum(total_entrados))

## # A tibble: 55 x 3
## # Groups:   anno [5]
##    anno  mes   `sum(total_entrados)`
##    <ord> <ord>                 <int>
##  1 2015  1                      2818
##  2 2015  2                      2297
##  3 2015  3                      2659
##  4 2015  4                      2720
##  5 2015  5                      2609
##  6 2015  6                      2773
##  7 2015  7                      2758
##  8 2015  8                      2684
##  9 2015  9                      2538
## 10 2015  10                     2624
## #  with 45 more rows
…
